CLA: 00, INS: a4, P1: 04, P2: 00, Lc: 0a, a0, 00, 00, 00, 62, 03, 01, 0c, 0d, 01, Le: 00, SW1: 00, SW2: 00
CLA: 00, INS: a4, P1: 04, P2: 00, Lc: 0a, a0, 00, 00, 00, 62, 03, 01, 0c, 0d, 01, Le: 00, SW1: 90, SW2: 00
OK
CLA: 80, INS: 30, P1: 00, P2: 00, Lc: 04, 33, 2d, 28, f6, Le: 00, SW1: 00, SW2: 00
CLA: 80, INS: 30, P1: 00, P2: 00, Lc: 04, 33, 2d, 28, f6, Le: 0e, 15, b8, 40, fd, 90, 00, 72, 39, 95, 39, 69, 10, 47, bc, SW1: 90, SW2: 00
OK
CLA: 00, INS: 20, P1: 00, P2: 00, Lc: 05, 31, 32, 33, 34, 35, Le: 00, SW1: 00, SW2: 00
CLA: 00, INS: 20, P1: 00, P2: 00, Lc: 05, 31, 32, 33, 34, 35, Le: 00, SW1: 90, SW2: 00
OK
CLA: 80, INS: 40, P1: 00, P2: 00, Lc: 0b, c3, 01, 63, 8a, 68, 2c, e8, 42, 00, 9b, f7, Le: 00, SW1: 00, SW2: 00
CLA: 80, INS: 40, P1: 00, P2: 00, Lc: 0b, c3, 01, 63, 8a, 68, 2c, e8, 42, 00, 9b, f7, Le: 0a, 90, 00, c5, 4b, 80, 0d, e1, 9e, dc, 6e, SW1: 90, SW2: 00
credit: [99] => OK
CLA: 80, INS: 40, P1: 00, P2: 00, Lc: 0a, c4, 00, 47, 9a, 99, 10, c1, c5, 27, 34, Le: 00, SW1: 00, SW2: 00
CLA: 80, INS: 40, P1: 00, P2: 00, Lc: 0a, c4, 00, 47, 9a, 99, 10, c1, c5, 27, 34, Le: 0c, 00, 63, 90, 00, 2c, ec, db, 6e, 46, c6, 31, a3, SW1: 90, SW2: 00
getBalance: [] => [ 99 ]
